619,0,0,0,0,0,1,0,0,0,1,0,1,0,0,0,1,0,1,0,0,0,0,0,1,1
0,594,0,2,1,3,1,5,0,0,0,1,1,0,0,1,0,9,3,0,0,5,0,0,0,0
0,0,572,0,1,0,6,0,0,0,0,0,0,0,3,0,0,0,1,0,1,0,0,0,0,0
0,3,0,613,0,2,0,3,1,1,0,0,0,4,4,0,1,2,0,0,0,0,0,0,0,0
0,4,0,0,603,1,4,1,0,0,1,2,0,0,0,1,1,1,4,0,0,1,0,4,0,4
0,0,0,1,1,599,1,1,2,1,0,0,0,1,0,11,0,0,0,2,0,2,0,0,1,0
0,1,7,2,5,0,592,0,0,0,0,1,0,0,0,0,3,0,0,0,0,1,0,0,0,0
0,1,0,3,1,1,0,540,0,1,5,0,0,3,4,0,1,6,0,1,1,1,0,0,0,0
1,0,0,0,0,3,0,0,579,13,0,1,0,0,0,1,0,0,1,0,0,0,0,0,1,1
0,0,0,0,0,0,0,1,13,588,0,0,1,0,0,0,0,0,0,0,0,0,0,0,0,0
0,0,0,0,1,0,1,5,0,0,561,0,0,1,0,0,0,3,0,0,0,1,0,4,0,0
0,0,1,0,2,0,0,1,1,1,0,611,0,1,0,1,0,2,1,1,0,0,0,2,0,0
1,1,0,0,0,0,0,0,0,0,0,0,633,0,0,0,0,2,0,0,2,0,0,0,0,0
0,0,0,3,0,0,2,4,0,0,0,0,2,625,1,0,0,1,0,0,1,0,1,0,0,0
0,0,3,3,0,0,1,4,0,1,0,0,1,1,577,2,6,1,0,0,1,0,1,0,0,0
0,1,0,0,0,9,0,1,0,0,0,1,0,0,0,633,1,1,0,0,0,0,0,1,1,0
1,0,0,0,1,0,3,1,0,0,0,0,0,0,5,0,601,2,0,0,0,1,0,0,2,1
0,5,0,1,2,0,1,9,0,0,5,2,0,1,0,0,1,591,0,1,0,0,1,0,0,0
0,1,0,3,3,1,0,0,0,0,0,1,0,0,0,0,0,0,594,0,0,0,0,1,0,2
0,0,1,1,0,3,0,0,0,0,0,0,0,0,1,0,0,0,0,619,0,2,0,1,9,0
0,0,0,1,0,0,0,4,0,0,0,0,2,1,2,0,0,0,0,0,633,1,2,0,0,0
0,4,0,0,1,0,1,1,0,0,0,0,0,0,1,1,1,0,0,2,1,593,1,0,8,0
0,0,0,0,0,0,0,0,0,0,0,0,2,1,2,0,0,0,0,0,0,1,571,0,1,0
0,1,0,0,5,0,1,2,2,0,3,2,0,0,1,0,1,1,0,0,0,0,0,609,0,0
0,0,0,0,0,3,0,0,0,0,0,0,0,1,0,0,1,0,1,10,1,9,0,0,610,0
1,0,0,0,4,0,1,0,0,0,0,0,0,0,0,0,0,0,2,1,0,0,0,1,0,564
