EPOCH, MSE, SSE, PGC
1,0.541424,4331.39,57.3
2,0.356373,2850.99,73.5313
3,0.291809,2334.47,78.4625
4,0.248982,1991.86,82.0938
5,0.217949,1743.59,84.575
6,0.197044,1576.35,85.9063
7,0.177193,1417.55,87.5938
8,0.165647,1325.18,88.3438
9,0.153652,1229.22,89.375
10,0.145576,1164.61,89.775
11,0.137457,1099.65,90.4562
12,0.130086,1040.69,90.8875
13,0.122758,982.067,91.6
14,0.120747,965.973,91.6375
15,0.113063,904.506,92.225
16,0.113095,904.756,92.1375
17,0.105963,847.704,92.7438
18,0.102963,823.704,92.8312
19,0.0959123,767.298,93.4875
20,0.100835,806.679,93.1813
21,0.100049,800.39,93.2875
22,0.0858254,686.603,94.2375
23,0.0849097,679.278,94.0563
24,0.0880927,704.742,93.9562
25,0.0878633,702.906,93.9375
26,0.0824575,659.66,94.3875
27,0.0837246,669.797,94.2687
28,0.07921,633.68,94.6188
29,0.0836216,668.973,94.35
30,0.0769302,615.441,94.9063
31,0.0748495,598.796,94.925
32,0.0743719,594.975,94.8812
33,0.0735267,588.214,94.9063
34,0.0760979,608.783,94.8375
35,0.0746297,597.038,95
36,0.0758905,607.124,94.9688
37,0.0703167,562.533,95.2125
38,0.0754145,603.316,95.0062
39,0.0740006,592.004,95.0563
40,0.0737121,589.697,95.0438
41,0.0741513,593.211,94.9562
42,0.0720274,576.219,95.2938
43,0.0775546,620.437,94.8
44,0.0717368,573.895,95.1312
45,0.0673849,539.079,95.3937
46,0.0653451,522.761,95.625
47,0.066255,530.04,95.6063
48,0.0655188,524.15,95.6625
49,0.0665931,532.745,95.475
50,0.069136,553.088,95.35
51,0.0668838,535.071,95.5687
52,0.0667709,534.167,95.7062
53,0.0578413,462.731,96.1875
54,0.0619864,495.891,95.9375
55,0.0588533,470.826,96.0438
56,0.0516637,413.309,96.575
57,0.0635533,508.426,95.7687
58,0.0692071,553.656,95.5687
59,0.0652627,522.102,95.7625
60,0.0656082,524.866,95.725
61,0.0609544,487.635,95.975
62,0.0640511,512.409,95.8187
63,0.0554254,443.403,96.2188
64,0.0455962,364.77,96.975
65,0.0484397,387.517,96.8312
66,0.0540867,432.694,96.3688
67,0.055413,443.304,96.4313
68,0.0498775,399.02,96.7313
69,0.0507894,406.315,96.6813
70,0.058818,470.544,96.3187
71,0.0595092,476.073,96.125
72,0.0569244,455.395,96.2125
73,0.0522129,417.704,96.5125
74,0.044597,356.776,97.0687
75,0.0495879,396.703,96.7062
76,0.0517303,413.842,96.6188
77,0.0436988,349.59,97.2313
78,0.041575,332.6,97.3063
79,0.0517601,414.08,96.6
80,0.0496856,397.484,96.9063
81,0.0437766,350.213,97.1688
82,0.0497188,397.75,96.7562
83,0.0542323,433.859,96.525
84,0.048999,391.992,96.7938
85,0.0540101,432.081,96.625
86,0.0524246,419.397,96.5375
87,0.0496644,397.315,96.7562
88,0.0484603,387.682,96.7813
89,0.0395643,316.514,97.4125
90,0.0440332,352.266,97.1063
91,0.0526274,421.019,96.6188
92,0.0443779,355.023,97.0125
93,0.0435581,348.465,97.125
94,0.0554094,443.275,96.4688
95,0.047341,378.728,96.9125
96,0.0606169,484.935,96.15
97,0.0584596,467.677,96.2687
98,0.051935,415.48,96.6563
99,0.0497055,397.644,96.7938
100,0.0469228,375.383,97.025
